%YAML 1.1
%TAG !u! tag:unity3d.com,2011:
--- !u!29 &1
OcclusionCullingSettings:
  m_ObjectHideFlags: 0
  serializedVersion: 2
  m_OcclusionBakeSettings:
    smallestOccluder: 5
    smallestHole: 0.25
    backfaceThreshold: 100
  m_SceneGUID: 00000000000000000000000000000000
  m_OcclusionCullingData: {fileID: 0}
--- !u!104 &2
RenderSettings:
  m_ObjectHideFlags: 0
  serializedVersion: 7
  m_Fog: 0
  m_FogColor: {r: 0.5, g: 0.5, b: 0.5, a: 1}
  m_FogMode: 3
  m_FogDensity: 0.01
  m_LinearFogStart: 0
  m_LinearFogEnd: 300
  m_AmbientSkyColor: {r: 0.212, g: 0.227, b: 0.259, a: 1}
  m_AmbientEquatorColor: {r: 0.114, g: 0.125, b: 0.133, a: 1}
  m_AmbientGroundColor: {r: 0.047, g: 0.043, b: 0.035, a: 1}
  m_AmbientIntensity: 1
  m_AmbientMode: 0
  m_SkyboxMaterial: {fileID: 2100000, guid: b72a32570d5710943a79fafcd5ec001c, type: 2}
  m_HaloStrength: 0.5
  m_FlareStrength: 1
  m_FlareFadeSpeed: 3
  m_HaloTexture: {fileID: 0}
  m_SpotCookie: {fileID: 10001, guid: 0000000000000000e000000000000000, type: 0}
  m_DefaultReflectionMode: 0
  m_DefaultReflectionResolution: 128
  m_ReflectionBounces: 1
  m_ReflectionIntensity: 1
  m_CustomReflection: {fileID: 0}
  m_Sun: {fileID: 0}
  m_IndirectSpecularColor: {r: 0, g: 0, b: 0, a: 1}
--- !u!157 &3
LightmapSettings:
  m_ObjectHideFlags: 0
  serializedVersion: 7
  m_GIWorkflowMode: 0
  m_GISettings:
    serializedVersion: 2
    m_BounceScale: 1
    m_IndirectOutputScale: 1
    m_AlbedoBoost: 1
    m_TemporalCoherenceThreshold: 1
    m_EnvironmentLightingMode: 0
    m_EnableBakedLightmaps: 1
    m_EnableRealtimeLightmaps: 1
  m_LightmapEditorSettings:
    serializedVersion: 4
    m_Resolution: 2
    m_BakeResolution: 40
    m_TextureWidth: 1024
    m_TextureHeight: 1024
    m_AO: 0
    m_AOMaxDistance: 1
    m_CompAOExponent: 0
    m_CompAOExponentDirect: 0
    m_Padding: 2
    m_LightmapParameters: {fileID: 0}
    m_LightmapsBakeMode: 1
    m_TextureCompression: 1
    m_DirectLightInLightProbes: 1
    m_FinalGather: 0
    m_FinalGatherFiltering: 1
    m_FinalGatherRayCount: 1024
    m_ReflectionCompression: 2
  m_LightingDataAsset: {fileID: 0}
  m_RuntimeCPUUsage: 25
--- !u!196 &4
NavMeshSettings:
  serializedVersion: 2
  m_ObjectHideFlags: 0
  m_BuildSettings:
    serializedVersion: 2
    agentTypeID: 0
    agentRadius: 0.5
    agentHeight: 2
    agentSlope: 45
    agentClimb: 0.4
    ledgeDropHeight: 0
    maxJumpAcrossDistance: 0
    minRegionArea: 2
    manualCellSize: 0
    cellSize: 0.16666667
    accuratePlacement: 0
  m_NavMeshData: {fileID: 0}
--- !u!1 &360206035
GameObject:
  m_ObjectHideFlags: 0
  m_PrefabParentObject: {fileID: 100000, guid: 36c373404a6674148b156e3398f0320f, type: 3}
  m_PrefabInternal: {fileID: 1779154433}
  serializedVersion: 5
  m_Component:
  - component: {fileID: 360206037}
  - component: {fileID: 360206036}
  m_Layer: 0
  m_Name: RaceC
  m_TagString: Untagged
  m_Icon: {fileID: 0}
  m_NavMeshLayer: 0
  m_StaticEditorFlags: 0
  m_IsActive: 1
--- !u!95 &360206036
Animator:
  serializedVersion: 3
  m_ObjectHideFlags: 0
  m_PrefabParentObject: {fileID: 9500000, guid: 36c373404a6674148b156e3398f0320f,
    type: 3}
  m_PrefabInternal: {fileID: 1779154433}
  m_GameObject: {fileID: 360206035}
  m_Enabled: 1
  m_Avatar: {fileID: 9000000, guid: 36c373404a6674148b156e3398f0320f, type: 3}
  m_Controller: {fileID: 0}
  m_CullingMode: 0
  m_UpdateMode: 0
  m_ApplyRootMotion: 0
  m_LinearVelocityBlending: 0
  m_WarningMessage: 
  m_HasTransformHierarchy: 1
  m_AllowConstantClipSamplingOptimization: 1
--- !u!4 &360206037
Transform:
  m_ObjectHideFlags: 0
  m_PrefabParentObject: {fileID: 400000, guid: 36c373404a6674148b156e3398f0320f, type: 3}
  m_PrefabInternal: {fileID: 1779154433}
  m_GameObject: {fileID: 360206035}
  m_LocalRotation: {x: 0, y: 0, z: 0, w: 1}
  m_LocalPosition: {x: 1.4156599, y: 0.37340498, z: -1.817}
  m_LocalScale: {x: 1, y: 1, z: 1}
  m_Children:
  - {fileID: 507568174}
  - {fileID: 515949622}
  - {fileID: 1234769156}
  - {fileID: 1971533204}
  - {fileID: 1551605608}
  m_Father: {fileID: 0}
  m_RootOrder: 2
  m_LocalEulerAnglesHint: {x: 0, y: 0, z: 0}
--- !u!1001 &423999395
Prefab:
  m_ObjectHideFlags: 0
  serializedVersion: 2
  m_Modification:
    m_TransformParent: {fileID: 0}
    m_Modifications:
    - target: {fileID: 400000, guid: a3d18511415aebe4d8f507c7bc9d4c15, type: 3}
      propertyPath: m_LocalPosition.x
      value: 1.375
      objectReference: {fileID: 0}
    - target: {fileID: 400000, guid: a3d18511415aebe4d8f507c7bc9d4c15, type: 3}
      propertyPath: m_LocalPosition.y
      value: 0.342
      objectReference: {fileID: 0}
    - target: {fileID: 400000, guid: a3d18511415aebe4d8f507c7bc9d4c15, type: 3}
      propertyPath: m_LocalPosition.z
      value: 1.856
      objectReference: {fileID: 0}
    - target: {fileID: 400000, guid: a3d18511415aebe4d8f507c7bc9d4c15, type: 3}
      propertyPath: m_LocalRotation.x
      value: 0
      objectReference: {fileID: 0}
    - target: {fileID: 400000, guid: a3d18511415aebe4d8f507c7bc9d4c15, type: 3}
      propertyPath: m_LocalRotation.y
      value: 0
      objectReference: {fileID: 0}
    - target: {fileID: 400000, guid: a3d18511415aebe4d8f507c7bc9d4c15, type: 3}
      propertyPath: m_LocalRotation.z
      value: 0
      objectReference: {fileID: 0}
    - target: {fileID: 400000, guid: a3d18511415aebe4d8f507c7bc9d4c15, type: 3}
      propertyPath: m_LocalRotation.w
      value: 1
      objectReference: {fileID: 0}
    - target: {fileID: 400000, guid: a3d18511415aebe4d8f507c7bc9d4c15, type: 3}
      propertyPath: m_RootOrder
      value: 1
      objectReference: {fileID: 0}
    m_RemovedComponents: []
  m_ParentPrefab: {fileID: 100100000, guid: a3d18511415aebe4d8f507c7bc9d4c15, type: 3}
  m_RootGameObject: {fileID: 1912824283}
  m_IsPrefabParent: 0
--- !u!1 &460766806
GameObject:
  m_ObjectHideFlags: 0
  m_PrefabParentObject: {fileID: 100004, guid: a3d18511415aebe4d8f507c7bc9d4c15, type: 3}
  m_PrefabInternal: {fileID: 423999395}
  serializedVersion: 5
  m_Component:
  - component: {fileID: 460766807}
  - component: {fileID: 460766809}
  - component: {fileID: 460766808}
  m_Layer: 0
  m_Name: RegularC_wheel00
  m_TagString: Untagged
  m_Icon: {fileID: 0}
  m_NavMeshLayer: 0
  m_StaticEditorFlags: 0
  m_IsActive: 1
--- !u!4 &460766807
Transform:
  m_ObjectHideFlags: 0
  m_PrefabParentObject: {fileID: 400004, guid: a3d18511415aebe4d8f507c7bc9d4c15, type: 3}
  m_PrefabInternal: {fileID: 423999395}
  m_GameObject: {fileID: 460766806}
  m_LocalRotation: {x: -0.7071068, y: 0, z: -0, w: 0.7071068}
  m_LocalPosition: {x: 1.5813607, y: 0.426444, z: 0.9111438}
  m_LocalScale: {x: 1, y: 1, z: 1}
  m_Children: []
  m_Father: {fileID: 1912824285}
  m_RootOrder: 1
  m_LocalEulerAnglesHint: {x: 0, y: 0, z: 0}
--- !u!23 &460766808
MeshRenderer:
  m_ObjectHideFlags: 0
  m_PrefabParentObject: {fileID: 2300002, guid: a3d18511415aebe4d8f507c7bc9d4c15,
    type: 3}
  m_PrefabInternal: {fileID: 423999395}
  m_GameObject: {fileID: 460766806}
  m_Enabled: 1
  m_CastShadows: 1
  m_ReceiveShadows: 1
  m_MotionVectors: 1
  m_LightProbeUsage: 1
  m_ReflectionProbeUsage: 1
  m_Materials:
  - {fileID: 2100000, guid: b6c44803ba37e6d4fa02a6ee901f87a8, type: 2}
  - {fileID: 2100000, guid: 768e60665f0afd049ba062f9d1477cfe, type: 2}
  m_StaticBatchInfo:
    firstSubMesh: 0
    subMeshCount: 0
  m_StaticBatchRoot: {fileID: 0}
  m_ProbeAnchor: {fileID: 0}
  m_LightProbeVolumeOverride: {fileID: 0}
  m_ScaleInLightmap: 1
  m_PreserveUVs: 0
  m_IgnoreNormalsForChartDetection: 0
  m_ImportantGI: 0
  m_SelectedEditorRenderState: 3
  m_MinimumChartSize: 4
  m_AutoUVMaxDistance: 0.5
  m_AutoUVMaxAngle: 89
  m_LightmapParameters: {fileID: 0}
  m_SortingLayerID: 0
  m_SortingOrder: 0
--- !u!33 &460766809
MeshFilter:
  m_ObjectHideFlags: 0
  m_PrefabParentObject: {fileID: 3300002, guid: a3d18511415aebe4d8f507c7bc9d4c15,
    type: 3}
  m_PrefabInternal: {fileID: 423999395}
  m_GameObject: {fileID: 460766806}
  m_Mesh: {fileID: 4300002, guid: a3d18511415aebe4d8f507c7bc9d4c15, type: 3}
--- !u!1 &507568173
GameObject:
  m_ObjectHideFlags: 0
  m_PrefabParentObject: {fileID: 100002, guid: 36c373404a6674148b156e3398f0320f, type: 3}
  m_PrefabInternal: {fileID: 1779154433}
  serializedVersion: 5
  m_Component:
  - component: {fileID: 507568174}
  - component: {fileID: 507568176}
  - component: {fileID: 507568175}
  m_Layer: 0
  m_Name: RaceC_red_body
  m_TagString: Untagged
  m_Icon: {fileID: 0}
  m_NavMeshLayer: 0
  m_StaticEditorFlags: 0
  m_IsActive: 1
--- !u!4 &507568174
Transform:
  m_ObjectHideFlags: 0
  m_PrefabParentObject: {fileID: 400002, guid: 36c373404a6674148b156e3398f0320f, type: 3}
  m_PrefabInternal: {fileID: 1779154433}
  m_GameObject: {fileID: 507568173}
  m_LocalRotation: {x: -0.7071068, y: 0, z: -0, w: 0.7071068}
  m_LocalPosition: {x: 0.039130807, y: 0.73665607, z: -0.043299317}
  m_LocalScale: {x: 1, y: 1, z: 1}
  m_Children: []
  m_Father: {fileID: 360206037}
  m_RootOrder: 0
  m_LocalEulerAnglesHint: {x: 0, y: 0, z: 0}
--- !u!23 &507568175
MeshRenderer:
  m_ObjectHideFlags: 0
  m_PrefabParentObject: {fileID: 2300000, guid: 36c373404a6674148b156e3398f0320f,
    type: 3}
  m_PrefabInternal: {fileID: 1779154433}
  m_GameObject: {fileID: 507568173}
  m_Enabled: 1
  m_CastShadows: 1
  m_ReceiveShadows: 1
  m_MotionVectors: 1
  m_LightProbeUsage: 1
  m_ReflectionProbeUsage: 1
  m_Materials:
  - {fileID: 2100000, guid: 04346cb4182d7c94c8ecbdb26fa243ad, type: 2}
  - {fileID: 2100000, guid: b6c44803ba37e6d4fa02a6ee901f87a8, type: 2}
  - {fileID: 2100000, guid: e7df20de0f66b5140b5efa05528e597a, type: 2}
  m_StaticBatchInfo:
    firstSubMesh: 0
    subMeshCount: 0
  m_StaticBatchRoot: {fileID: 0}
  m_ProbeAnchor: {fileID: 0}
  m_LightProbeVolumeOverride: {fileID: 0}
  m_ScaleInLightmap: 1
  m_PreserveUVs: 0
  m_IgnoreNormalsForChartDetection: 0
  m_ImportantGI: 0
  m_SelectedEditorRenderState: 3
  m_MinimumChartSize: 4
  m_AutoUVMaxDistance: 0.5
  m_AutoUVMaxAngle: 89
  m_LightmapParameters: {fileID: 0}
  m_SortingLayerID: 0
  m_SortingOrder: 0
--- !u!33 &507568176
MeshFilter:
  m_ObjectHideFlags: 0
  m_PrefabParentObject: {fileID: 3300000, guid: 36c373404a6674148b156e3398f0320f,
    type: 3}
  m_PrefabInternal: {fileID: 1779154433}
  m_GameObject: {fileID: 507568173}
  m_Mesh: {fileID: 4300000, guid: 36c373404a6674148b156e3398f0320f, type: 3}
--- !u!1 &515949621
GameObject:
  m_ObjectHideFlags: 0
  m_PrefabParentObject: {fileID: 100004, guid: 36c373404a6674148b156e3398f0320f, type: 3}
  m_PrefabInternal: {fileID: 1779154433}
  serializedVersion: 5
  m_Component:
  - component: {fileID: 515949622}
  - component: {fileID: 515949624}
  - component: {fileID: 515949623}
  m_Layer: 0
  m_Name: RaceC_wheel00
  m_TagString: Untagged
  m_Icon: {fileID: 0}
  m_NavMeshLayer: 0
  m_StaticEditorFlags: 0
  m_IsActive: 1
--- !u!4 &515949622
Transform:
  m_ObjectHideFlags: 0
  m_PrefabParentObject: {fileID: 400004, guid: 36c373404a6674148b156e3398f0320f, type: 3}
  m_PrefabInternal: {fileID: 1779154433}
  m_GameObject: {fileID: 515949621}
  m_LocalRotation: {x: -0.7071068, y: 0, z: -0, w: 0.7071068}
  m_LocalPosition: {x: 1.5613172, y: 0.41438615, z: 0.89421284}
  m_LocalScale: {x: 1, y: 1, z: 1}
  m_Children: []
  m_Father: {fileID: 360206037}
  m_RootOrder: 1
  m_LocalEulerAnglesHint: {x: 0, y: 0, z: 0}
--- !u!23 &515949623
MeshRenderer:
  m_ObjectHideFlags: 0
  m_PrefabParentObject: {fileID: 2300002, guid: 36c373404a6674148b156e3398f0320f,
    type: 3}
  m_PrefabInternal: {fileID: 1779154433}
  m_GameObject: {fileID: 515949621}
  m_Enabled: 1
  m_CastShadows: 1
  m_ReceiveShadows: 1
  m_MotionVectors: 1
  m_LightProbeUsage: 1
  m_ReflectionProbeUsage: 1
  m_Materials:
  - {fileID: 2100000, guid: b6c44803ba37e6d4fa02a6ee901f87a8, type: 2}
  - {fileID: 2100000, guid: 04346cb4182d7c94c8ecbdb26fa243ad, type: 2}
  m_StaticBatchInfo:
    firstSubMesh: 0
    subMeshCount: 0
  m_StaticBatchRoot: {fileID: 0}
  m_ProbeAnchor: {fileID: 0}
  m_LightProbeVolumeOverride: {fileID: 0}
  m_ScaleInLightmap: 1
  m_PreserveUVs: 0
  m_IgnoreNormalsForChartDetection: 0
  m_ImportantGI: 0
  m_SelectedEditorRenderState: 3
  m_MinimumChartSize: 4
  m_AutoUVMaxDistance: 0.5
  m_AutoUVMaxAngle: 89
  m_LightmapParameters: {fileID: 0}
  m_SortingLayerID: 0
  m_SortingOrder: 0
--- !u!33 &515949624
MeshFilter:
  m_ObjectHideFlags: 0
  m_PrefabParentObject: {fileID: 3300002, guid: 36c373404a6674148b156e3398f0320f,
    type: 3}
  m_PrefabInternal: {fileID: 1779154433}
  m_GameObject: {fileID: 515949621}
  m_Mesh: {fileID: 4300004, guid: 36c373404a6674148b156e3398f0320f, type: 3}
--- !u!1 &1234769155
GameObject:
  m_ObjectHideFlags: 0
  m_PrefabParentObject: {fileID: 100006, guid: 36c373404a6674148b156e3398f0320f, type: 3}
  m_PrefabInternal: {fileID: 1779154433}
  serializedVersion: 5
  m_Component:
  - component: {fileID: 1234769156}
  - component: {fileID: 1234769158}
  - component: {fileID: 1234769157}
  m_Layer: 0
  m_Name: RaceC_wheel01
  m_TagString: Untagged
  m_Icon: {fileID: 0}
  m_NavMeshLayer: 0
  m_StaticEditorFlags: 0
  m_IsActive: 1
--- !u!4 &1234769156
Transform:
  m_ObjectHideFlags: 0
  m_PrefabParentObject: {fileID: 400006, guid: 36c373404a6674148b156e3398f0320f, type: 3}
  m_PrefabInternal: {fileID: 1779154433}
  m_GameObject: {fileID: 1234769155}
  m_LocalRotation: {x: -0.7071068, y: 0, z: -0, w: 0.7071068}
  m_LocalPosition: {x: -1.5720248, y: 0.41438615, z: 0.89421284}
  m_LocalScale: {x: 1, y: 1, z: 1}
  m_Children: []
  m_Father: {fileID: 360206037}
  m_RootOrder: 2
  m_LocalEulerAnglesHint: {x: 0, y: 0, z: 0}
--- !u!23 &1234769157
MeshRenderer:
  m_ObjectHideFlags: 0
  m_PrefabParentObject: {fileID: 2300004, guid: 36c373404a6674148b156e3398f0320f,
    type: 3}
  m_PrefabInternal: {fileID: 1779154433}
  m_GameObject: {fileID: 1234769155}
  m_Enabled: 1
  m_CastShadows: 1
  m_ReceiveShadows: 1
  m_MotionVectors: 1
  m_LightProbeUsage: 1
  m_ReflectionProbeUsage: 1
  m_Materials:
  - {fileID: 2100000, guid: b6c44803ba37e6d4fa02a6ee901f87a8, type: 2}
  - {fileID: 2100000, guid: 04346cb4182d7c94c8ecbdb26fa243ad, type: 2}
  m_StaticBatchInfo:
    firstSubMesh: 0
    subMeshCount: 0
  m_StaticBatchRoot: {fileID: 0}
  m_ProbeAnchor: {fileID: 0}
  m_LightProbeVolumeOverride: {fileID: 0}
  m_ScaleInLightmap: 1
  m_PreserveUVs: 0
  m_IgnoreNormalsForChartDetection: 0
  m_ImportantGI: 0
  m_SelectedEditorRenderState: 3
  m_MinimumChartSize: 4
  m_AutoUVMaxDistance: 0.5
  m_AutoUVMaxAngle: 89
  m_LightmapParameters: {fileID: 0}
  m_SortingLayerID: 0
  m_SortingOrder: 0
--- !u!33 &1234769158
MeshFilter:
  m_ObjectHideFlags: 0
  m_PrefabParentObject: {fileID: 3300004, guid: 36c373404a6674148b156e3398f0320f,
    type: 3}
  m_PrefabInternal: {fileID: 1779154433}
  m_GameObject: {fileID: 1234769155}
  m_Mesh: {fileID: 4300006, guid: 36c373404a6674148b156e3398f0320f, type: 3}
--- !u!1 &1551605607
GameObject:
  m_ObjectHideFlags: 0
  m_PrefabParentObject: {fileID: 100010, guid: 36c373404a6674148b156e3398f0320f, type: 3}
  m_PrefabInternal: {fileID: 1779154433}
  serializedVersion: 5
  m_Component:
  - component: {fileID: 1551605608}
  - component: {fileID: 1551605610}
  - component: {fileID: 1551605609}
  m_Layer: 0
  m_Name: RaceC_wheel03
  m_TagString: Untagged
  m_Icon: {fileID: 0}
  m_NavMeshLayer: 0
  m_StaticEditorFlags: 0
  m_IsActive: 1
--- !u!4 &1551605608
Transform:
  m_ObjectHideFlags: 0
  m_PrefabParentObject: {fileID: 400010, guid: 36c373404a6674148b156e3398f0320f, type: 3}
  m_PrefabInternal: {fileID: 1779154433}
  m_GameObject: {fileID: 1551605607}
  m_LocalRotation: {x: -0.7071068, y: 0, z: -0, w: 0.7071068}
  m_LocalPosition: {x: -1.5720248, y: 0.41438615, z: -0.9767333}
  m_LocalScale: {x: 1, y: 1, z: 1}
  m_Children: []
  m_Father: {fileID: 360206037}
  m_RootOrder: 4
  m_LocalEulerAnglesHint: {x: 0, y: 0, z: 0}
--- !u!23 &1551605609
MeshRenderer:
  m_ObjectHideFlags: 0
  m_PrefabParentObject: {fileID: 2300008, guid: 36c373404a6674148b156e3398f0320f,
    type: 3}
  m_PrefabInternal: {fileID: 1779154433}
  m_GameObject: {fileID: 1551605607}
  m_Enabled: 1
  m_CastShadows: 1
  m_ReceiveShadows: 1
  m_MotionVectors: 1
  m_LightProbeUsage: 1
  m_ReflectionProbeUsage: 1
  m_Materials:
  - {fileID: 2100000, guid: b6c44803ba37e6d4fa02a6ee901f87a8, type: 2}
  - {fileID: 2100000, guid: 04346cb4182d7c94c8ecbdb26fa243ad, type: 2}
  m_StaticBatchInfo:
    firstSubMesh: 0
    subMeshCount: 0
  m_StaticBatchRoot: {fileID: 0}
  m_ProbeAnchor: {fileID: 0}
  m_LightProbeVolumeOverride: {fileID: 0}
  m_ScaleInLightmap: 1
  m_PreserveUVs: 0
  m_IgnoreNormalsForChartDetection: 0
  m_ImportantGI: 0
  m_SelectedEditorRenderState: 3
  m_MinimumChartSize: 4
  m_AutoUVMaxDistance: 0.5
  m_AutoUVMaxAngle: 89
  m_LightmapParameters: {fileID: 0}
  m_SortingLayerID: 0
  m_SortingOrder: 0
--- !u!33 &1551605610
MeshFilter:
  m_ObjectHideFlags: 0
  m_PrefabParentObject: {fileID: 3300008, guid: 36c373404a6674148b156e3398f0320f,
    type: 3}
  m_PrefabInternal: {fileID: 1779154433}
  m_GameObject: {fileID: 1551605607}
  m_Mesh: {fileID: 4300008, guid: 36c373404a6674148b156e3398f0320f, type: 3}
--- !u!1001 &1779154433
Prefab:
  m_ObjectHideFlags: 0
  serializedVersion: 2
  m_Modification:
    m_TransformParent: {fileID: 0}
    m_Modifications:
    - target: {fileID: 400000, guid: 36c373404a6674148b156e3398f0320f, type: 3}
      propertyPath: m_LocalPosition.x
      value: 1.4156599
      objectReference: {fileID: 0}
    - target: {fileID: 400000, guid: 36c373404a6674148b156e3398f0320f, type: 3}
      propertyPath: m_LocalPosition.y
      value: 0.37340498
      objectReference: {fileID: 0}
    - target: {fileID: 400000, guid: 36c373404a6674148b156e3398f0320f, type: 3}
      propertyPath: m_LocalPosition.z
      value: -1.817
      objectReference: {fileID: 0}
    - target: {fileID: 400000, guid: 36c373404a6674148b156e3398f0320f, type: 3}
      propertyPath: m_LocalRotation.x
      value: 0
      objectReference: {fileID: 0}
    - target: {fileID: 400000, guid: 36c373404a6674148b156e3398f0320f, type: 3}
      propertyPath: m_LocalRotation.y
      value: 0
      objectReference: {fileID: 0}
    - target: {fileID: 400000, guid: 36c373404a6674148b156e3398f0320f, type: 3}
      propertyPath: m_LocalRotation.z
      value: 0
      objectReference: {fileID: 0}
    - target: {fileID: 400000, guid: 36c373404a6674148b156e3398f0320f, type: 3}
      propertyPath: m_LocalRotation.w
      value: 1
      objectReference: {fileID: 0}
    - target: {fileID: 400000, guid: 36c373404a6674148b156e3398f0320f, type: 3}
      propertyPath: m_RootOrder
      value: 2
      objectReference: {fileID: 0}
    m_RemovedComponents: []
  m_ParentPrefab: {fileID: 100100000, guid: 36c373404a6674148b156e3398f0320f, type: 3}
  m_RootGameObject: {fileID: 360206035}
  m_IsPrefabParent: 0
--- !u!1 &1800061114
GameObject:
  m_ObjectHideFlags: 0
  m_PrefabParentObject: {fileID: 100008, guid: a3d18511415aebe4d8f507c7bc9d4c15, type: 3}
  m_PrefabInternal: {fileID: 423999395}
  serializedVersion: 5
  m_Component:
  - component: {fileID: 1800061115}
  - component: {fileID: 1800061117}
  - component: {fileID: 1800061116}
  m_Layer: 0
  m_Name: RegularC_wheel02
  m_TagString: Untagged
  m_Icon: {fileID: 0}
  m_NavMeshLayer: 0
  m_StaticEditorFlags: 0
  m_IsActive: 1
--- !u!4 &1800061115
Transform:
  m_ObjectHideFlags: 0
  m_PrefabParentObject: {fileID: 400008, guid: a3d18511415aebe4d8f507c7bc9d4c15, type: 3}
  m_PrefabInternal: {fileID: 423999395}
  m_GameObject: {fileID: 1800061114}
  m_LocalRotation: {x: -0.7071068, y: 0, z: -0, w: 0.7071068}
  m_LocalPosition: {x: -1.5497991, y: 0.42863828, z: 0.93338156}
  m_LocalScale: {x: 1, y: 1, z: 1}
  m_Children: []
  m_Father: {fileID: 1912824285}
  m_RootOrder: 3
  m_LocalEulerAnglesHint: {x: 0, y: 0, z: 0}
--- !u!23 &1800061116
MeshRenderer:
  m_ObjectHideFlags: 0
  m_PrefabParentObject: {fileID: 2300006, guid: a3d18511415aebe4d8f507c7bc9d4c15,
    type: 3}
  m_PrefabInternal: {fileID: 423999395}
  m_GameObject: {fileID: 1800061114}
  m_Enabled: 1
  m_CastShadows: 1
  m_ReceiveShadows: 1
  m_MotionVectors: 1
  m_LightProbeUsage: 1
  m_ReflectionProbeUsage: 1
  m_Materials:
  - {fileID: 2100000, guid: b6c44803ba37e6d4fa02a6ee901f87a8, type: 2}
  - {fileID: 2100000, guid: 768e60665f0afd049ba062f9d1477cfe, type: 2}
  m_StaticBatchInfo:
    firstSubMesh: 0
    subMeshCount: 0
  m_StaticBatchRoot: {fileID: 0}
  m_ProbeAnchor: {fileID: 0}
  m_LightProbeVolumeOverride: {fileID: 0}
  m_ScaleInLightmap: 1
  m_PreserveUVs: 0
  m_IgnoreNormalsForChartDetection: 0
  m_ImportantGI: 0
  m_SelectedEditorRenderState: 3
  m_MinimumChartSize: 4
  m_AutoUVMaxDistance: 0.5
  m_AutoUVMaxAngle: 89
  m_LightmapParameters: {fileID: 0}
  m_SortingLayerID: 0
  m_SortingOrder: 0
--- !u!33 &1800061117
MeshFilter:
  m_ObjectHideFlags: 0
  m_PrefabParentObject: {fileID: 3300006, guid: a3d18511415aebe4d8f507c7bc9d4c15,
    type: 3}
  m_PrefabInternal: {fileID: 423999395}
  m_GameObject: {fileID: 1800061114}
  m_Mesh: {fileID: 4300004, guid: a3d18511415aebe4d8f507c7bc9d4c15, type: 3}
--- !u!1 &1846321701
GameObject:
  m_ObjectHideFlags: 0
  m_PrefabParentObject: {fileID: 0}
  m_PrefabInternal: {fileID: 0}
  serializedVersion: 5
  m_Component:
  - component: {fileID: 1846321706}
  - component: {fileID: 1846321705}
  - component: {fileID: 1846321704}
  - component: {fileID: 1846321703}
  - component: {fileID: 1846321702}
  m_Layer: 0
  m_Name: Main Camera
  m_TagString: MainCamera
  m_Icon: {fileID: 0}
  m_NavMeshLayer: 0
  m_StaticEditorFlags: 0
  m_IsActive: 1
--- !u!81 &1846321702
AudioListener:
  m_ObjectHideFlags: 0
  m_PrefabParentObject: {fileID: 0}
  m_PrefabInternal: {fileID: 0}
  m_GameObject: {fileID: 1846321701}
  m_Enabled: 1
--- !u!124 &1846321703
Behaviour:
  m_ObjectHideFlags: 0
  m_PrefabParentObject: {fileID: 0}
  m_PrefabInternal: {fileID: 0}
  m_GameObject: {fileID: 1846321701}
  m_Enabled: 1
--- !u!92 &1846321704
Behaviour:
  m_ObjectHideFlags: 0
  m_PrefabParentObject: {fileID: 0}
  m_PrefabInternal: {fileID: 0}
  m_GameObject: {fileID: 1846321701}
  m_Enabled: 1
--- !u!20 &1846321705
Camera:
  m_ObjectHideFlags: 0
  m_PrefabParentObject: {fileID: 0}
  m_PrefabInternal: {fileID: 0}
  m_GameObject: {fileID: 1846321701}
  m_Enabled: 1
  serializedVersion: 2
  m_ClearFlags: 1
  m_BackGroundColor: {r: 0.19215687, g: 0.3019608, b: 0.4745098, a: 0.019607844}
  m_NormalizedViewPortRect:
    serializedVersion: 2
    x: 0
    y: 0
    width: 1
    height: 1
  near clip plane: 0.3
  far clip plane: 1000
  field of view: 60
  orthographic: 0
  orthographic size: 5
  m_Depth: -1
  m_CullingMask:
    serializedVersion: 2
    m_Bits: 4294967295
  m_RenderingPath: -1
  m_TargetTexture: {fileID: 0}
  m_TargetDisplay: 0
  m_TargetEye: 3
  m_HDR: 0
  m_OcclusionCulling: 1
  m_StereoConvergence: 10
  m_StereoSeparation: 0.022
  m_StereoMirrorMode: 0
--- !u!4 &1846321706
Transform:
  m_ObjectHideFlags: 0
  m_PrefabParentObject: {fileID: 0}
  m_PrefabInternal: {fileID: 0}
  m_GameObject: {fileID: 1846321701}
  m_LocalRotation: {x: 0, y: 0, z: 0, w: 1}
  m_LocalPosition: {x: 0, y: 1, z: -10}
  m_LocalScale: {x: 1, y: 1, z: 1}
  m_Children: []
  m_Father: {fileID: 0}
  m_RootOrder: 0
  m_LocalEulerAnglesHint: {x: 0, y: 0, z: 0}
--- !u!1 &1895664614
GameObject:
  m_ObjectHideFlags: 0
  m_PrefabParentObject: {fileID: 0}
  m_PrefabInternal: {fileID: 0}
  serializedVersion: 5
  m_Component:
  - component: {fileID: 1895664616}
  - component: {fileID: 1895664615}
  m_Layer: 0
  m_Name: Spotlight
  m_TagString: Untagged
  m_Icon: {fileID: 0}
  m_NavMeshLayer: 0
  m_StaticEditorFlags: 0
  m_IsActive: 1
--- !u!108 &1895664615
Light:
  m_ObjectHideFlags: 0
  m_PrefabParentObject: {fileID: 0}
  m_PrefabInternal: {fileID: 0}
  m_GameObject: {fileID: 1895664614}
  m_Enabled: 1
  serializedVersion: 7
  m_Type: 2
  m_Color: {r: 1, g: 1, b: 1, a: 1}
  m_Intensity: 2.4
  m_Range: 20
  m_SpotAngle: 30
  m_CookieSize: 10
  m_Shadows:
    m_Type: 0
    m_Resolution: -1
    m_CustomResolution: -1
    m_Strength: 1
    m_Bias: 0.05
    m_NormalBias: 0.4
    m_NearPlane: 0.2
  m_Cookie: {fileID: 0}
  m_DrawHalo: 0
  m_Flare: {fileID: 0}
  m_RenderMode: 0
  m_CullingMask:
    serializedVersion: 2
    m_Bits: 4294967295
  m_Lightmapping: 4
  m_AreaSize: {x: 1, y: 1}
  m_BounceIntensity: 1
  m_ShadowRadius: 0
  m_ShadowAngle: 0
--- !u!4 &1895664616
Transform:
  m_ObjectHideFlags: 0
  m_PrefabParentObject: {fileID: 0}
  m_PrefabInternal: {fileID: 0}
  m_GameObject: {fileID: 1895664614}
  m_LocalRotation: {x: 0.7071068, y: 0, z: 0, w: 0.7071067}
  m_LocalPosition: {x: 3.85, y: 4.81, z: -4.29}
  m_LocalScale: {x: 1, y: 1, z: 1}
  m_Children: []
  m_Father: {fileID: 0}
  m_RootOrder: 3
  m_LocalEulerAnglesHint: {x: 0, y: 0, z: 0}
--- !u!1 &1912824283
GameObject:
  m_ObjectHideFlags: 0
  m_PrefabParentObject: {fileID: 100000, guid: a3d18511415aebe4d8f507c7bc9d4c15, type: 3}
  m_PrefabInternal: {fileID: 423999395}
  serializedVersion: 5
  m_Component:
  - component: {fileID: 1912824285}
  - component: {fileID: 1912824284}
  m_Layer: 0
  m_Name: RegularC
  m_TagString: Untagged
  m_Icon: {fileID: 0}
  m_NavMeshLayer: 0
  m_StaticEditorFlags: 0
  m_IsActive: 1
--- !u!95 &1912824284
Animator:
  serializedVersion: 3
  m_ObjectHideFlags: 0
  m_PrefabParentObject: {fileID: 9500000, guid: a3d18511415aebe4d8f507c7bc9d4c15,
    type: 3}
  m_PrefabInternal: {fileID: 423999395}
  m_GameObject: {fileID: 1912824283}
  m_Enabled: 1
  m_Avatar: {fileID: 9000000, guid: a3d18511415aebe4d8f507c7bc9d4c15, type: 3}
  m_Controller: {fileID: 0}
  m_CullingMode: 0
  m_UpdateMode: 0
  m_ApplyRootMotion: 0
  m_LinearVelocityBlending: 0
  m_WarningMessage: 
  m_HasTransformHierarchy: 1
  m_AllowConstantClipSamplingOptimization: 1
--- !u!4 &1912824285
Transform:
  m_ObjectHideFlags: 0
  m_PrefabParentObject: {fileID: 400000, guid: a3d18511415aebe4d8f507c7bc9d4c15, type: 3}
  m_PrefabInternal: {fileID: 423999395}
  m_GameObject: {fileID: 1912824283}
  m_LocalRotation: {x: 0, y: 0, z: 0, w: 1}
  m_LocalPosition: {x: 1.375, y: 0.342, z: 1.856}
  m_LocalScale: {x: 1, y: 1, z: 1}
  m_Children:
  - {fileID: 1915779415}
  - {fileID: 460766807}
  - {fileID: 1913787511}
  - {fileID: 1800061115}
  - {fileID: 1941132182}
  m_Father: {fileID: 0}
  m_RootOrder: 1
  m_LocalEulerAnglesHint: {x: 0, y: 0, z: 0}
--- !u!1 &1913787510
GameObject:
  m_ObjectHideFlags: 0
  m_PrefabParentObject: {fileID: 100006, guid: a3d18511415aebe4d8f507c7bc9d4c15, type: 3}
  m_PrefabInternal: {fileID: 423999395}
  serializedVersion: 5
  m_Component:
  - component: {fileID: 1913787511}
  - component: {fileID: 1913787513}
  - component: {fileID: 1913787512}
  m_Layer: 0
  m_Name: RegularC_wheel01
  m_TagString: Untagged
  m_Icon: {fileID: 0}
  m_NavMeshLayer: 0
  m_StaticEditorFlags: 0
  m_IsActive: 1
--- !u!4 &1913787511
Transform:
  m_ObjectHideFlags: 0
  m_PrefabParentObject: {fileID: 400006, guid: a3d18511415aebe4d8f507c7bc9d4c15, type: 3}
  m_PrefabInternal: {fileID: 423999395}
  m_GameObject: {fileID: 1913787510}
  m_LocalRotation: {x: -0.7071068, y: 0, z: -0, w: 0.7071068}
  m_LocalPosition: {x: 1.5813607, y: 0.426444, z: -0.9579644}
  m_LocalScale: {x: 1, y: 1, z: 1}
  m_Children: []
  m_Father: {fileID: 1912824285}
  m_RootOrder: 2
  m_LocalEulerAnglesHint: {x: 0, y: 0, z: 0}
--- !u!23 &1913787512
MeshRenderer:
  m_ObjectHideFlags: 0
  m_PrefabParentObject: {fileID: 2300004, guid: a3d18511415aebe4d8f507c7bc9d4c15,
    type: 3}
  m_PrefabInternal: {fileID: 423999395}
  m_GameObject: {fileID: 1913787510}
  m_Enabled: 1
  m_CastShadows: 1
  m_ReceiveShadows: 1
  m_MotionVectors: 1
  m_LightProbeUsage: 1
  m_ReflectionProbeUsage: 1
  m_Materials:
  - {fileID: 2100000, guid: b6c44803ba37e6d4fa02a6ee901f87a8, type: 2}
  - {fileID: 2100000, guid: 768e60665f0afd049ba062f9d1477cfe, type: 2}
  m_StaticBatchInfo:
    firstSubMesh: 0
    subMeshCount: 0
  m_StaticBatchRoot: {fileID: 0}
  m_ProbeAnchor: {fileID: 0}
  m_LightProbeVolumeOverride: {fileID: 0}
  m_ScaleInLightmap: 1
  m_PreserveUVs: 0
  m_IgnoreNormalsForChartDetection: 0
  m_ImportantGI: 0
  m_SelectedEditorRenderState: 3
  m_MinimumChartSize: 4
  m_AutoUVMaxDistance: 0.5
  m_AutoUVMaxAngle: 89
  m_LightmapParameters: {fileID: 0}
  m_SortingLayerID: 0
  m_SortingOrder: 0
--- !u!33 &1913787513
MeshFilter:
  m_ObjectHideFlags: 0
  m_PrefabParentObject: {fileID: 3300004, guid: a3d18511415aebe4d8f507c7bc9d4c15,
    type: 3}
  m_PrefabInternal: {fileID: 423999395}
  m_GameObject: {fileID: 1913787510}
  m_Mesh: {fileID: 4300008, guid: a3d18511415aebe4d8f507c7bc9d4c15, type: 3}
--- !u!1 &1915779414
GameObject:
  m_ObjectHideFlags: 0
  m_PrefabParentObject: {fileID: 100002, guid: a3d18511415aebe4d8f507c7bc9d4c15, type: 3}
  m_PrefabInternal: {fileID: 423999395}
  serializedVersion: 5
  m_Component:
  - component: {fileID: 1915779415}
  - component: {fileID: 1915779417}
  - component: {fileID: 1915779416}
  m_Layer: 0
  m_Name: RegularC_green_body
  m_TagString: Untagged
  m_Icon: {fileID: 0}
  m_NavMeshLayer: 0
  m_StaticEditorFlags: 0
  m_IsActive: 1
--- !u!4 &1915779415
Transform:
  m_ObjectHideFlags: 0
  m_PrefabParentObject: {fileID: 400002, guid: a3d18511415aebe4d8f507c7bc9d4c15, type: 3}
  m_PrefabInternal: {fileID: 423999395}
  m_GameObject: {fileID: 1915779414}
  m_LocalRotation: {x: -0.7071068, y: 0, z: -0, w: 0.7071068}
  m_LocalPosition: {x: -0.0060025454, y: 0.77711856, z: -0.024528027}
  m_LocalScale: {x: 1, y: 1, z: 1}
  m_Children: []
  m_Father: {fileID: 1912824285}
  m_RootOrder: 0
  m_LocalEulerAnglesHint: {x: 0, y: 0, z: 0}
--- !u!23 &1915779416
MeshRenderer:
  m_ObjectHideFlags: 0
  m_PrefabParentObject: {fileID: 2300000, guid: a3d18511415aebe4d8f507c7bc9d4c15,
    type: 3}
  m_PrefabInternal: {fileID: 423999395}
  m_GameObject: {fileID: 1915779414}
  m_Enabled: 1
  m_CastShadows: 1
  m_ReceiveShadows: 1
  m_MotionVectors: 1
  m_LightProbeUsage: 1
  m_ReflectionProbeUsage: 1
  m_Materials:
  - {fileID: 2100000, guid: 768e60665f0afd049ba062f9d1477cfe, type: 2}
  - {fileID: 2100000, guid: b6c44803ba37e6d4fa02a6ee901f87a8, type: 2}
  - {fileID: 2100000, guid: c30bced88583292459e07f5b59bd326a, type: 2}
  m_StaticBatchInfo:
    firstSubMesh: 0
    subMeshCount: 0
  m_StaticBatchRoot: {fileID: 0}
  m_ProbeAnchor: {fileID: 0}
  m_LightProbeVolumeOverride: {fileID: 0}
  m_ScaleInLightmap: 1
  m_PreserveUVs: 0
  m_IgnoreNormalsForChartDetection: 0
  m_ImportantGI: 0
  m_SelectedEditorRenderState: 3
  m_MinimumChartSize: 4
  m_AutoUVMaxDistance: 0.5
  m_AutoUVMaxAngle: 89
  m_LightmapParameters: {fileID: 0}
  m_SortingLayerID: 0
  m_SortingOrder: 0
--- !u!33 &1915779417
MeshFilter:
  m_ObjectHideFlags: 0
  m_PrefabParentObject: {fileID: 3300000, guid: a3d18511415aebe4d8f507c7bc9d4c15,
    type: 3}
  m_PrefabInternal: {fileID: 423999395}
  m_GameObject: {fileID: 1915779414}
  m_Mesh: {fileID: 4300000, guid: a3d18511415aebe4d8f507c7bc9d4c15, type: 3}
--- !u!1 &1941132181
GameObject:
  m_ObjectHideFlags: 0
  m_PrefabParentObject: {fileID: 100010, guid: a3d18511415aebe4d8f507c7bc9d4c15, type: 3}
  m_PrefabInternal: {fileID: 423999395}
  serializedVersion: 5
  m_Component:
  - component: {fileID: 1941132182}
  - component: {fileID: 1941132184}
  - component: {fileID: 1941132183}
  m_Layer: 0
  m_Name: RegularC_wheel03
  m_TagString: Untagged
  m_Icon: {fileID: 0}
  m_NavMeshLayer: 0
  m_StaticEditorFlags: 0
  m_IsActive: 1
--- !u!4 &1941132182
Transform:
  m_ObjectHideFlags: 0
  m_PrefabParentObject: {fileID: 400010, guid: a3d18511415aebe4d8f507c7bc9d4c15, type: 3}
  m_PrefabInternal: {fileID: 423999395}
  m_GameObject: {fileID: 1941132181}
  m_LocalRotation: {x: -0.7071068, y: 0, z: -0, w: 0.7071068}
  m_LocalPosition: {x: -1.5497991, y: 0.4286384, z: -0.96685934}
  m_LocalScale: {x: 1, y: 1, z: 1}
  m_Children: []
  m_Father: {fileID: 1912824285}
  m_RootOrder: 4
  m_LocalEulerAnglesHint: {x: 0, y: 0, z: 0}
--- !u!23 &1941132183
MeshRenderer:
  m_ObjectHideFlags: 0
  m_PrefabParentObject: {fileID: 2300008, guid: a3d18511415aebe4d8f507c7bc9d4c15,
    type: 3}
  m_PrefabInternal: {fileID: 423999395}
  m_GameObject: {fileID: 1941132181}
  m_Enabled: 1
  m_CastShadows: 1
  m_ReceiveShadows: 1
  m_MotionVectors: 1
  m_LightProbeUsage: 1
  m_ReflectionProbeUsage: 1
  m_Materials:
  - {fileID: 2100000, guid: b6c44803ba37e6d4fa02a6ee901f87a8, type: 2}
  - {fileID: 2100000, guid: 768e60665f0afd049ba062f9d1477cfe, type: 2}
  m_StaticBatchInfo:
    firstSubMesh: 0
    subMeshCount: 0
  m_StaticBatchRoot: {fileID: 0}
  m_ProbeAnchor: {fileID: 0}
  m_LightProbeVolumeOverride: {fileID: 0}
  m_ScaleInLightmap: 1
  m_PreserveUVs: 0
  m_IgnoreNormalsForChartDetection: 0
  m_ImportantGI: 0
  m_SelectedEditorRenderState: 3
  m_MinimumChartSize: 4
  m_AutoUVMaxDistance: 0.5
  m_AutoUVMaxAngle: 89
  m_LightmapParameters: {fileID: 0}
  m_SortingLayerID: 0
  m_SortingOrder: 0
--- !u!33 &1941132184
MeshFilter:
  m_ObjectHideFlags: 0
  m_PrefabParentObject: {fileID: 3300008, guid: a3d18511415aebe4d8f507c7bc9d4c15,
    type: 3}
  m_PrefabInternal: {fileID: 423999395}
  m_GameObject: {fileID: 1941132181}
  m_Mesh: {fileID: 4300006, guid: a3d18511415aebe4d8f507c7bc9d4c15, type: 3}
--- !u!1 &1971533203
GameObject:
  m_ObjectHideFlags: 0
  m_PrefabParentObject: {fileID: 100008, guid: 36c373404a6674148b156e3398f0320f, type: 3}
  m_PrefabInternal: {fileID: 1779154433}
  serializedVersion: 5
  m_Component:
  - component: {fileID: 1971533204}
  - component: {fileID: 1971533206}
  - component: {fileID: 1971533205}
  m_Layer: 0
  m_Name: RaceC_wheel02
  m_TagString: Untagged
  m_Icon: {fileID: 0}
  m_NavMeshLayer: 0
  m_StaticEditorFlags: 0
  m_IsActive: 1
--- !u!4 &1971533204
Transform:
  m_ObjectHideFlags: 0
  m_PrefabParentObject: {fileID: 400008, guid: 36c373404a6674148b156e3398f0320f, type: 3}
  m_PrefabInternal: {fileID: 1779154433}
  m_GameObject: {fileID: 1971533203}
  m_LocalRotation: {x: -0.7071068, y: 0, z: -0, w: 0.7071068}
  m_LocalPosition: {x: 1.5613172, y: 0.41438615, z: -0.9767333}
  m_LocalScale: {x: 1, y: 1, z: 1}
  m_Children: []
  m_Father: {fileID: 360206037}
  m_RootOrder: 3
  m_LocalEulerAnglesHint: {x: 0, y: 0, z: 0}
--- !u!23 &1971533205
MeshRenderer:
  m_ObjectHideFlags: 0
  m_PrefabParentObject: {fileID: 2300006, guid: 36c373404a6674148b156e3398f0320f,
    type: 3}
  m_PrefabInternal: {fileID: 1779154433}
  m_GameObject: {fileID: 1971533203}
  m_Enabled: 1
  m_CastShadows: 1
  m_ReceiveShadows: 1
  m_MotionVectors: 1
  m_LightProbeUsage: 1
  m_ReflectionProbeUsage: 1
  m_Materials:
  - {fileID: 2100000, guid: b6c44803ba37e6d4fa02a6ee901f87a8, type: 2}
  - {fileID: 2100000, guid: 04346cb4182d7c94c8ecbdb26fa243ad, type: 2}
  m_StaticBatchInfo:
    firstSubMesh: 0
    subMeshCount: 0
  m_StaticBatchRoot: {fileID: 0}
  m_ProbeAnchor: {fileID: 0}
  m_LightProbeVolumeOverride: {fileID: 0}
  m_ScaleInLightmap: 1
  m_PreserveUVs: 0
  m_IgnoreNormalsForChartDetection: 0
  m_ImportantGI: 0
  m_SelectedEditorRenderState: 3
  m_MinimumChartSize: 4
  m_AutoUVMaxDistance: 0.5
  m_AutoUVMaxAngle: 89
  m_LightmapParameters: {fileID: 0}
  m_SortingLayerID: 0
  m_SortingOrder: 0
--- !u!33 &1971533206
MeshFilter:
  m_ObjectHideFlags: 0
  m_PrefabParentObject: {fileID: 3300006, guid: 36c373404a6674148b156e3398f0320f,
    type: 3}
  m_PrefabInternal: {fileID: 1779154433}
  m_GameObject: {fileID: 1971533203}
  m_Mesh: {fileID: 4300002, guid: 36c373404a6674148b156e3398f0320f, type: 3}
